<?xml version="1.0" encoding="UTF-8"?>
<svg xmlns="http://www.w3.org/2000/svg" xmlns:xlink="http://www.w3.org/1999/xlink" width="240pt" height="240pt" viewBox="0 0 240 240" version="1.1">
<g id="surface1673887">
<path style=" stroke:none;fill-rule:nonzero;fill:rgb(92.54902%,94.117647%,94.509804%);fill-opacity:1;" d="M 225 175 C 225 186 216 195 205 195 L 35 195 C 24 195 15 186 15 175 L 15 65 C 15 54 24 45 35 45 L 205 45 C 216 45 225 54 225 65 Z M 225 175 "/>
<path style=" stroke:none;fill-rule:nonzero;fill:rgb(100%,42.745098%,0%);fill-opacity:1;" d="M 225 175 C 225 186 216 195 205 195 L 80 195 C 80 195 198 176 225 120 Z M 110 120 C 110 128.5 116.5 135 125 135 C 133.5 135 140 128.5 140 120 C 140 111.5 133.5 105 125 105 C 116.5 105 110 111.5 110 120 Z M 110 120 "/>
<path style=" stroke:none;fill-rule:nonzero;fill:rgb(0%,0%,0%);fill-opacity:1;" d="M 56 105 L 61.5 105 L 61.5 135 L 56 135 Z M 86 120 C 86 128.5 92.5 135 101 135 C 103.5 135 105.5 134.5 108 133.5 L 108 127 C 106 129 104 130 101 130 C 95.5 130 91.5 126 91.5 120 C 91.5 114.5 95.5 110 101 110 C 103.5 110 105.5 111 108 113 L 108 106.5 C 105.5 105.5 103.5 104.5 101 104.5 C 92.5 105 86 112 86 120 Z M 153 124.5 L 145 105 L 139 105 L 151.5 135 L 154.5 135 L 167 105 L 161 105 Z M 169.5 135 L 185.5 135 L 185.5 130 L 175 130 L 175 122 L 185 122 L 185 117 L 175 117 L 175 110 L 185.5 110 L 185.5 105 L 169.5 105 Z M 207.5 114 C 207.5 108.5 204 105 197.5 105 L 189 105 L 189 135 L 194.5 135 L 194.5 123 L 195 123 L 203 135 L 210 135 L 201 122.5 C 205 121.5 207.5 118.5 207.5 114 Z M 196 119 L 194.5 119 L 194.5 110 L 196 110 C 199.5 110 201.5 111.5 201.5 114.5 C 201.5 117 200 119 196 119 Z M 38.5 105 L 30 105 L 30 135 L 38 135 C 50.5 135 53.5 124.5 53.5 120 C 54 111 47.5 105 38.5 105 Z M 37 130 L 35.5 130 L 35.5 110 L 37.5 110 C 45 110 48 115 48 120 C 48 122 47.5 130 37 130 Z M 76.5 116.5 C 73 115 72 114.5 72 113 C 72 111 74 110 76 110 C 77.5 110 79 110.5 80.5 112.5 L 83.5 108.5 C 81 106 78.5 105 75 105 C 70 105 66 108.5 66 113.5 C 66 117.5 68 119.5 73 121.5 C 76 122.5 78.5 123.5 78.5 126 C 78.5 128.5 76.5 130 74 130 C 71.5 130 69 128.5 68 126 L 64.5 129.5 C 67 133.5 70 135 74.5 135 C 80.5 135 84.5 131 84.5 125.5 C 84.5 121 82.5 119 76.5 116.5 Z M 76.5 116.5 "/>
</g>
</svg>
