{
    "taskDefinition": "tsk-app-web:1",
    "cluster": "cluster-totolec",
    "loadBalancers": [
        {
            "targetGroupArn": "arn:aws:elasticloadbalancing:us-east-2:267108701946:targetgroup/tg-cluster-app-totolec/76001796ca3bd9ee",
            "containerName": "app-web",
            "containerPort": 80
        }
    ],
    "desiredCount": 2,
    "launchType": "FARGATE",
    "schedulingStrategy": "REPLICA",
    "deploymentController": {
        "type": "ECS"
    },
    "networkConfiguration": {
        "awsvpcConfiguration": {
            "subnets": [
                "subnet-036cba68",
                "subnet-4c747b36",
                "subnet-9ca8dfd0"
            ],
            "securityGroups": [
                "sg-2a150756"
            ],
            "assignPublicIp": "ENABLED"
        }
    }
}
