<svg xmlns="http://www.w3.org/2000/svg" xmlns:xlink="http://www.w3.org/1999/xlink" width="222" height="155" viewBox="0 0 222 155">
    <defs>
        <rect id="a" width="222" height="155" rx="5"/>
    </defs>
    <g fill="none" fill-rule="evenodd">
        <use fill="#89D8BE" xlink:href="#a"/>
        <rect width="214" height="147" x="4" y="4" stroke="#85CDB4" stroke-width="8" rx="5"/>
        <path fill="#62A58E" d="M32 31h158v20H32z"/>
        <ellipse cx="112.5" cy="90" fill="#7ABFA7" rx="30.5" ry="31"/>
        <path fill="#62A58E" d="M33 90h38v20H33zM78.667 90h38v20h-38zM124.333 90h19v20h-19zM151 90h38v20h-38z"/>
        <text fill="#35705C" font-family="NunitoSans-Bold, Nunito Sans" font-size="11" font-weight="bold">
            <tspan x="174" y="80">1234</tspan>
        </text>
        <ellipse cx="186" cy="75.5" stroke="#314eab" stroke-width="6" rx="23" ry="17.5" transform="rotate(-15 186 75.5)"/>
    </g>
</svg>
